    {
        "title": "Parameters",
        "type": "object",
        "required": [
            "#token",
            "debug",
            "incrementalOutput"
        ],
        "properties": {
            "#token": {
                "title": "API Token",
                "type": "string",
                "format": "password",
                "minLength": 1,
                "default": "your_api_token"
            },
            "incrementalOutput": {
                "title": "Incremental Output",
                "type": "boolean",
                "enum": [
                    true,
                    false
                ],
                "default": true
            },
            "debug": {
                "title": "Debug Mode",
                "type": "boolean",
                "enum": [
                    true,
                    false
                ],
                "default": false
            }
        }
    }